{
  "exclude": [
    "^(node_modules|bower_components|\\.imdone|target|build|dist|logs)[\\/\\\\]?|\\.(git|svn|hg|npmignore)|\\~$|\\.(jpg|png|gif|swp|ttf|otf)$",
    "assets/*",
    "api/*",
    "src/*",
    "system/*"
  ],
  "watcher": true,
  "keepEmptyPriority": false,
  "code": {
    "include_lists": [
      "TODO",
      "DOING",
      "DONE",
      "PLANNING",
      "FIXME",
      "ARCHIVE",
      "HACK",
      "CHANGED",
      "XXX",
      "IDEA",
      "NOTE",
      "REVIEW",
      "161",
      "188",
      "142",
      "171",
      "144",
      "61",
      "431"
    ]
  },
  "lists": [
    {
      "name": "RECOMMENDATION",
      "hidden": false
    },
    {
      "name": "DONE",
      "hidden": false
    },
    {
      "name": "NOTE",
      "hidden": false
    },
    {
      "name": "TODO",
      "hidden": false
    },
    {
      "name": "161",
      "hidden": false
    },
    {
      "name": "188",
      "hidden": false
    },
    {
      "name": "142",
      "hidden": false
    },
    {
      "name": "171",
      "hidden": false
    },
    {
      "name": "144",
      "hidden": false
    },
    {
      "name": "61",
      "hidden": false
    },
    {
      "name": "431",
      "hidden": false
    },
    {
      "name": "Sets",
      "hidden": false
    }
  ],
  "marked": {
    "gfm": true,
    "tables": true,
    "breaks": false,
    "pedantic": false,
    "smartLists": true,
    "langPrefix": "language-"
  }
}